{
  "count": 54604,
  "next": "https://gutendex.com/books/?copyright=false&languages=en&page=2",
  "previous": null,
  "results": [
      {
          "id": 1342,
          "title": "Pride and Prejudice",
          "authors": [
              {
                  "name": "Austen, Jane",
                  "birth_year": 1775,
                  "death_year": 1817
              }
          ],
          "translators": [],
          "subjects": [
              "Courtship -- Fiction",
              "Domestic fiction",
              "England -- Fiction",
              "Love stories",
              "Sisters -- Fiction",
              "Social classes -- Fiction",
              "Young women -- Fiction"
          ],
          "bookshelves": [
              "Best Books Ever Listings",
              "Harvard Classics"
          ],
          "languages": [
              "en"
          ],
          "copyright": false,
          "media_type": "Text",
          "formats": {
              "application/x-mobipocket-ebook": "https://www.gutenberg.org/ebooks/1342.kindle.images",
              "application/epub+zip": "https://www.gutenberg.org/ebooks/1342.epub.images",
              "application/rdf+xml": "https://www.gutenberg.org/ebooks/1342.rdf",
              "text/html; charset=utf-8": "https://www.gutenberg.org/files/1342/1342-h/1342-h.htm",
              "application/zip": "https://www.gutenberg.org/files/1342/1342-h.zip",
              "text/plain; charset=utf-8": "https://www.gutenberg.org/files/1342/1342-0.txt",
              "image/jpeg": "https://www.gutenberg.org/cache/epub/1342/pg1342.cover.medium.jpg",
              "text/html": "https://www.gutenberg.org/ebooks/1342.html.images"
          },
          "download_count": 45242
      },
      {
          "id": 1661,
          "title": "The Adventures of Sherlock Holmes",
          "authors": [
              {
                  "name": "Doyle, Arthur Conan",
                  "birth_year": 1859,
                  "death_year": 1930
              }
          ],
          "translators": [],
          "subjects": [
              "Detective and mystery stories, English",
              "Holmes, Sherlock (Fictitious character) -- Fiction",
              "Private investigators -- England -- Fiction"
          ],
          "bookshelves": [
              "Banned Books from Anne Haight's list",
              "Contemporary Reviews",
              "Detective Fiction"
          ],
          "languages": [
              "en"
          ],
          "copyright": false,
          "media_type": "Text",
          "formats": {
              "application/epub+zip": "https://www.gutenberg.org/ebooks/1661.epub.images",
              "application/rdf+xml": "https://www.gutenberg.org/ebooks/1661.rdf",
              "application/x-mobipocket-ebook": "https://www.gutenberg.org/ebooks/1661.kindle.images",
              "application/zip": "https://www.gutenberg.org/files/1661/1661-h.zip",
              "image/jpeg": "https://www.gutenberg.org/cache/epub/1661/pg1661.cover.medium.jpg",
              "text/plain; charset=utf-8": "https://www.gutenberg.org/files/1661/1661-0.txt",
              "text/html; charset=utf-8": "https://www.gutenberg.org/files/1661/1661-h/1661-h.htm",
              "text/html": "https://www.gutenberg.org/ebooks/1661.html.images"
          },
          "download_count": 26568
      },
      {
          "id": 11,
          "title": "Alice's Adventures in Wonderland",
          "authors": [
              {
                  "name": "Carroll, Lewis",
                  "birth_year": 1832,
                  "death_year": 1898
              }
          ],
          "translators": [],
          "subjects": [
              "Alice (Fictitious character from Carroll) -- Juvenile fiction",
              "Children's stories",
              "Fantasy fiction",
              "Imaginary places -- Juvenile fiction"
          ],
          "bookshelves": [
              "Children's Literature"
          ],
          "languages": [
              "en"
          ],
          "copyright": false,
          "media_type": "Text",
          "formats": {
              "application/epub+zip": "https://www.gutenberg.org/ebooks/11.epub.images",
              "application/rdf+xml": "https://www.gutenberg.org/ebooks/11.rdf",
              "application/x-mobipocket-ebook": "https://www.gutenberg.org/ebooks/11.kindle.images",
              "text/html; charset=utf-8": "https://www.gutenberg.org/files/11/11-h.zip",
              "image/jpeg": "https://www.gutenberg.org/cache/epub/11/pg11.cover.medium.jpg",
              "text/plain; charset=utf-8": "https://www.gutenberg.org/files/11/11-0.zip",
              "text/html": "https://www.gutenberg.org/ebooks/11.html.images"
          },
          "download_count": 24462
      },
      {
          "id": 105,
          "title": "Persuasion",
          "authors": [
              {
                  "name": "Austen, Jane",
                  "birth_year": 1775,
                  "death_year": 1817
              }
          ],
          "translators": [],
          "subjects": [
              "Dysfunctional families -- Fiction",
              "England -- Social life and customs -- 19th century -- Fiction",
              "First loves -- Fiction",
              "Love stories",
              "Motherless families -- Fiction",
              "Psychological fiction",
              "Regency fiction",
              "Rejection (Psychology) -- Fiction",
              "Ship captains -- Fiction",
              "Young women -- Fiction"
          ],
          "bookshelves": [],
          "languages": [
              "en"
          ],
          "copyright": false,
          "media_type": "Text",
          "formats": {
              "text/html; charset=iso-8859-1": "https://www.gutenberg.org/files/105/105-h/105-h.htm",
              "application/epub+zip": "https://www.gutenberg.org/ebooks/105.epub.images",
              "application/rdf+xml": "https://www.gutenberg.org/ebooks/105.rdf",
              "text/plain": "https://www.gutenberg.org/ebooks/105.txt.utf-8",
              "application/x-mobipocket-ebook": "https://www.gutenberg.org/ebooks/105.kindle.images",
              "image/jpeg": "https://www.gutenberg.org/cache/epub/105/pg105.cover.medium.jpg",
              "application/zip": "https://www.gutenberg.org/files/105/105-8.zip",
              "text/html": "https://www.gutenberg.org/ebooks/105.html.images",
              "text/plain; charset=iso-8859-1": "https://www.gutenberg.org/files/105/105-8.txt",
              "text/plain; charset=us-ascii": "https://www.gutenberg.org/files/105/105.txt"
          },
          "download_count": 17010
      },
      {
          "id": 2701,
          "title": "Moby Dick; Or, The Whale",
          "authors": [
              {
                  "name": "Melville, Herman",
                  "birth_year": 1819,
                  "death_year": 1891
              }
          ],
          "translators": [],
          "subjects": [
              "Adventure stories",
              "Ahab, Captain (Fictitious character) -- Fiction",
              "Mentally ill -- Fiction",
              "Psychological fiction",
              "Sea stories",
              "Ship captains -- Fiction",
              "Whales -- Fiction",
              "Whaling -- Fiction",
              "Whaling ships -- Fiction"
          ],
          "bookshelves": [
              "Best Books Ever Listings"
          ],
          "languages": [
              "en"
          ],
          "copyright": false,
          "media_type": "Text",
          "formats": {
              "text/html; charset=utf-8": "https://www.gutenberg.org/files/2701/2701-h/2701-h.htm",
              "application/zip": "https://www.gutenberg.org/files/2701/2701-0.zip",
              "application/x-mobipocket-ebook": "https://www.gutenberg.org/ebooks/2701.kindle.images",
              "application/rdf+xml": "https://www.gutenberg.org/ebooks/2701.rdf",
              "application/epub+zip": "https://www.gutenberg.org/ebooks/2701.epub.images",
              "image/jpeg": "https://www.gutenberg.org/cache/epub/2701/pg2701.cover.medium.jpg",
              "text/html": "https://www.gutenberg.org/ebooks/2701.html.images",
              "text/plain; charset=utf-8": "https://www.gutenberg.org/files/2701/2701-0.txt"
          },
          "download_count": 16313
      }
    
          
  ]
}